<?xml version="1.0" standalone="no"?>
<!DOCTYPE svg PUBLIC "-//W3C//DTD SVG 20010904//EN"
 "http://www.w3.org/TR/2001/REC-SVG-20010904/DTD/svg10.dtd">
<svg version="1.0" xmlns="http://www.w3.org/2000/svg"
 width="512.000000pt" height="512.000000pt" viewBox="0 0 512.000000 512.000000"
 preserveAspectRatio="xMidYMid meet">

<g transform="translate(0.000000,512.000000) scale(0.100000,-0.100000)"
fill="#000000" stroke="none">
<path d="M0 2560 l0 -2560 2560 0 2560 0 0 2560 0 2560 -2560 0 -2560 0 0
-2560z m3169 1310 c246 -31 439 -193 506 -425 27 -92 17 -194 -28 -288 l-36
-76 49 -109 c112 -249 145 -519 96 -774 -19 -98 -76 -268 -117 -350 -115 -228
-319 -424 -574 -551 -263 -131 -532 -163 -840 -101 -219 44 -491 182 -682 344
-158 134 -251 335 -222 482 10 47 8 69 -7 135 -26 109 -26 355 -1 473 25 115
58 211 111 323 67 139 139 240 256 357 168 167 386 302 580 359 58 17 130 44
160 60 135 71 309 109 431 95 50 -6 59 -4 59 9 0 19 22 26 108 37 37 4 67 8
67 9 0 0 38 -4 84 -9z"/>
<path d="M3044 3748 c20 -28 56 -100 56 -114 0 -3 -17 7 -38 21 -96 63 -235
86 -378 61 -113 -19 -206 -57 -326 -131 -51 -32 -105 -65 -120 -74 -34 -20
-128 -137 -171 -211 l-32 -55 -6 -320 c-7 -359 -11 -334 71 -436 27 -34 50
-66 50 -70 0 -5 -18 -18 -40 -29 -22 -11 -40 -24 -40 -29 0 -5 -35 -17 -77
-26 -84 -19 -275 -83 -413 -139 -60 -24 -87 -31 -92 -23 -3 7 -12 57 -18 111
-24 191 7 393 87 567 106 227 260 398 509 566 62 41 120 84 130 95 19 21 19
21 -19 15 -46 -7 -170 -78 -280 -160 -234 -173 -410 -434 -477 -708 -31 -124
-37 -309 -15 -429 11 -56 19 -146 19 -221 1 -124 1 -126 39 -203 105 -212 457
-438 798 -512 102 -22 305 -29 412 -15 391 52 782 352 918 706 67 172 82 253
83 445 1 159 -2 184 -26 275 -36 139 -61 200 -117 293 -48 80 -48 80 -29 103
10 13 33 51 50 84 96 185 -8 426 -230 536 -64 31 -182 58 -260 59 l-43 0 25
-32z m158 -78 c69 -20 135 -121 126 -194 -5 -49 -25 -40 -60 26 -18 35 -51 81
-73 103 -22 22 -46 48 -54 58 -12 15 -11 17 5 17 11 0 35 -5 56 -10z m-308
-70 c98 -16 185 -67 244 -144 12 -16 22 -37 22 -48 0 -16 -11 -12 -65 28 -96
68 -186 96 -305 96 -53 -1 -119 -7 -150 -16 -117 -33 -109 -33 -75 3 39 42 73
60 149 76 76 17 105 17 180 5z m-480 -182 c-62 -109 -60 -108 -174 -124 -19
-2 -48 -7 -65 -10 -30 -6 -29 -5 20 46 61 63 74 71 150 86 79 16 77 16 69 2z
m409 -198 c29 -11 92 -44 140 -74 127 -80 208 -96 296 -56 24 11 47 20 51 20
12 0 29 -47 45 -125 21 -101 21 -105 -17 -105 -18 0 -50 -3 -70 -6 -36 -6 -37
-8 -40 -53 -3 -46 -3 -46 -43 -51 l-40 -5 -3 -112 -3 -113 35 0 c31 0 34 3 40
35 5 25 12 35 25 35 21 0 31 35 31 111 l0 49 40 0 41 0 -7 -52 c-3 -29 -12
-78 -20 -109 -8 -31 -14 -86 -14 -122 l0 -65 -107 5 c-60 3 -165 8 -236 12
-145 7 -132 15 -143 -91 -7 -79 4 -81 -142 22 -53 37 -114 75 -136 84 l-38 16
4 215 4 215 40 43 c70 74 69 69 48 148 -21 83 -17 94 46 127 55 27 103 28 173
2z m687 -332 c41 -91 69 -190 85 -298 29 -186 16 -316 -51 -523 -42 -128 -47
-137 -67 -132 -53 15 -246 90 -291 112 l-48 24 78 46 c45 26 108 75 146 114
62 63 67 71 72 121 7 78 27 367 33 491 3 59 8 107 10 107 2 0 17 -28 33 -62z
m-1172 -121 c48 -44 67 -139 40 -204 -19 -47 -10 -142 18 -190 39 -68 281
-261 397 -317 28 -14 80 -29 115 -33 l63 -8 36 -79 c38 -85 55 -146 82 -303
l18 -102 -21 -20 c-27 -25 -136 -75 -245 -112 -47 -16 -88 -29 -92 -29 -4 0
-10 21 -13 48 -10 67 -42 202 -72 301 l-26 84 -182 -6 -181 -6 -47 69 c-67 96
-242 313 -267 327 -16 10 -30 9 -73 -6 -86 -30 -256 -100 -308 -126 -62 -31
-75 -31 -78 1 -2 22 6 29 61 54 76 34 379 145 425 155 23 5 32 3 32 -7 1 -7
28 -42 61 -78 33 -36 104 -123 157 -193 l96 -129 36 6 c19 3 79 6 133 6 l98 0
-23 41 c-13 23 -77 100 -143 171 -175 189 -160 162 -160 290 0 65 -4 113 -10
115 -66 22 -114 93 -115 168 0 114 113 182 188 112z m798 -427 l64 0 0 -45 0
-45 -115 0 c-127 0 -123 -3 -109 70 7 32 8 32 52 26 25 -3 73 -6 108 -6z m179
-478 c34 -6 40 -11 40 -32 0 -24 -2 -25 -80 -28 -44 -2 -108 0 -142 3 -61 6
-63 7 -63 36 l0 29 103 -1 c56 0 120 -3 142 -7z"/>
<path d="M2691 2923 c-5 -10 -12 -39 -16 -65 -7 -44 -6 -48 13 -48 12 0 24 5
27 10 10 17 137 11 220 -10 113 -29 132 -27 143 13 5 17 6 36 1 41 -15 17
-264 75 -321 76 -45 0 -59 -4 -67 -17z"/>
<path d="M2766 2739 c-12 -117 -17 -109 74 -109 l80 0 0 79 c0 90 -1 91 -96
91 l-51 0 -7 -61z"/>
</g>
</svg>
